Current configuration:
[NAME]		[DEFLT]	[VALUE]
-allphones	no	no
-cntthresh	0.00001	1.000000e-05
-csplitmax	100	2000
-csplitmin	1	1
-csplitthr	8e-4	0.000000e+00
-example	no	no
-fullvar	no	no
-help		no	no
-meanfn			/home/saria/Downloads/tutorial/aze/model_parameters/aze.cd_cont_untied/means
-mixwfn			/home/saria/Downloads/tutorial/aze/model_parameters/aze.cd_cont_untied/mixture_weights
-moddeffn		/home/saria/Downloads/tutorial/aze/model_architecture/aze.untied.mdef
-mwfloor	1e-4	1.000000e-08
-phone			N
-psetfn			/home/saria/Downloads/tutorial/aze/model_architecture/aze.tree_questions
-ssplitmax	5	7
-ssplitmin	1	1
-ssplitthr	8e-4	0.000000e+00
-state			1
-stwt			1.0,0.05,0.0,
-treefn			/home/saria/Downloads/tutorial/aze/trees/aze.unpruned/N-1.dtree
-ts2cbfn	.semi.	.cont.
-varfloor	0.00001	1.000000e-05
-varfn			/home/saria/Downloads/tutorial/aze/model_parameters/aze.cd_cont_untied/variances

INFO: main.c(223): Reading: /home/saria/Downloads/tutorial/aze/model_architecture/aze.untied.mdef
INFO: model_def_io.c(573): Model definition info:
INFO: model_def_io.c(574): 215 total models defined (26 base, 189 tri)
INFO: model_def_io.c(575): 860 total states
INFO: model_def_io.c(576): 645 total tied states
INFO: model_def_io.c(577): 78 total tied CI states
INFO: model_def_io.c(578): 26 total tied transition matrices
INFO: model_def_io.c(579): 4 max state/model
INFO: model_def_io.c(580): 4 min state/model
INFO: main.c(242): Building trees for [N A A e] through [N O Y e]
INFO: main.c(269): Covering states |[387 458]| == 72
INFO: main.c(275): Reading: /home/saria/Downloads/tutorial/aze/model_parameters/aze.cd_cont_untied/mixture_weights
INFO: s3mixw_io.c(173): Read /home/saria/Downloads/tutorial/aze/model_parameters/aze.cd_cont_untied/mixture_weights [72x1x1 array]
INFO: main.c(311): 24 of 24 models have observation count greater than 0.000010
INFO: main.c(95): nrm stwt: 0.045 0.909 0.045 
INFO: s3gau_io.c(169): Read /home/saria/Downloads/tutorial/aze/model_parameters/aze.cd_cont_untied/means [645x1x1 array]
INFO: s3gau_io.c(169): Read /home/saria/Downloads/tutorial/aze/model_parameters/aze.cd_cont_untied/variances [645x1x1 array]
INFO: main.c(549): Reading: /home/saria/Downloads/tutorial/aze/model_architecture/aze.tree_questions
INFO: main.c(588): 178 total simple questions (170 phone; 8 word bndry)
INFO: main.c(590): 40 Left Only questions, and 42 Right Only questions
INFO: dtree.c(1478): Final simple tree
|( QUESTION0_2_R 1 -8.829e+05 9.197e+03 4.092e+03
|    ( QUESTION0_5_R 1 -3.891e+05 2.624e+03 1.951e+03
|        ( - -1.856e+05 3 0 QUESTION6 -1 5.251e+02 9.302e+02)
|        ( - -2.009e+05 3 0 QUESTION6 -1 9.078e+02 1.021e+03))
|    ( QUESTION0_0_R 1 -4.846e+05 3.154e+03 2.140e+03
|        ( QUESTION0 1 -1.894e+05 2.231e+03 8.583e+02
|            ( - -5.889e+04 3 0 QUESTION6 -1 1.043e+03 2.761e+02)
|            ( QUESTION6 1 -1.283e+05 1.565e+03 5.822e+02
|                ( - -7.089e+04 3 0 QUESTION6 -1 5.289e+02 3.281e+02)
|                ( - -5.586e+04 3 0 QUESTION6 -1 3.260e+02 2.540e+02)))
|        ( SILENCE 1 -2.920e+05 2.345e+03 1.282e+03
|            ( - -1.955e+05 3 0 QUESTION6 -1 8.664e+02 8.609e+02)
|            ( QUESTION0_9_R 1 -9.414e+04 1.641e+03 4.210e+02
|                ( - -4.555e+04 3 0 QUESTION6 -1 3.433e+02 2.117e+02)
|                ( - -4.695e+04 3 0 QUESTION6 -1 6.733e+02 2.092e+02)))))
s>    ( QUESTION0_2_R 1 -8.829e+05 9.197e+03 4.092e+03
s>        ( QUESTION0_5_R 1 -3.891e+05 2.624e+03 1.951e+03
s>            ( - -1.856e+05 3 0 QUESTION6 -1 5.251e+02 9.302e+02)
s>            ( - -2.009e+05 3 0 QUESTION6 -1 9.078e+02 1.021e+03))
s>        ( QUESTION0_0_R 1 -4.846e+05 3.154e+03 2.140e+03
s>            ( QUESTION0 1 -1.894e+05 2.231e+03 8.583e+02
s>                ( - -5.889e+04 3 0 QUESTION6 -1 1.043e+03 2.761e+02)
s>                ( QUESTION6 1 -1.283e+05 1.565e+03 5.822e+02
s>                    ( - -7.089e+04 3 0 QUESTION6 -1 5.289e+02 3.281e+02)
s>                    ( - -5.586e+04 3 0 QUESTION6 -1 3.260e+02 2.540e+02)))
s>            ( SILENCE 1 -2.920e+05 2.345e+03 1.282e+03
s>                ( - -1.955e+05 3 0 QUESTION6 -1 8.664e+02 8.609e+02)
s>                ( QUESTION0_9_R 1 -9.414e+04 1.641e+03 4.210e+02
s>                    ( - -4.555e+04 3 0 QUESTION6 -1 3.433e+02 2.117e+02)
s>                    ( - -4.695e+04 3 0 QUESTION6 -1 6.733e+02 2.092e+02)))))INFO: dtree.c(1315): Comp split 0
INFO: dtree.c(1478): Final simple tree
|( QUESTION0_0_R 1 -4.846e+05 3.154e+03 2.140e+03
|    ( QUESTION0 1 -1.894e+05 2.231e+03 8.583e+02
|        ( QUESTION6 -1 -5.889e+04 1.043e+03 2.761e+02
|            ( - -4.400e+04 2 0)
|            ( - -1.385e+04 1 0))
|        ( QUESTION6 1 -1.283e+05 1.565e+03 5.822e+02
|            ( - -7.089e+04 3 0 QUESTION6 -1 5.289e+02 3.281e+02)
|            ( - -5.586e+04 3 0 QUESTION6 -1 3.260e+02 2.540e+02)))
|    ( SILENCE 1 -2.920e+05 2.345e+03 1.282e+03
|        ( QUESTION6 -1 -1.955e+05 8.664e+02 8.609e+02
|            ( - -1.756e+05 2 0)
|            ( - -1.907e+04 1 0))
|        ( QUESTION0_9_R 1 -9.414e+04 1.641e+03 4.210e+02
|            ( - -4.555e+04 3 0 QUESTION6 -1 3.433e+02 2.117e+02)
|            ( - -4.695e+04 3 0 QUESTION6 -1 6.733e+02 2.092e+02))))
s>    ( QUESTION0_0_R 1 -4.846e+05 3.154e+03 2.140e+03
s>        ( QUESTION0 1 -1.894e+05 2.231e+03 8.583e+02
s>            ( QUESTION6 -1 -5.889e+04 1.043e+03 2.761e+02
s>                ( - -4.400e+04 2 0)
s>                ( - -1.385e+04 1 0))
s>            ( QUESTION6 1 -1.283e+05 1.565e+03 5.822e+02
s>                ( - -7.089e+04 3 0 QUESTION6 -1 5.289e+02 3.281e+02)
s>                ( - -5.586e+04 3 0 QUESTION6 -1 3.260e+02 2.540e+02)))
s>        ( SILENCE 1 -2.920e+05 2.345e+03 1.282e+03
s>            ( QUESTION6 -1 -1.955e+05 8.664e+02 8.609e+02
s>                ( - -1.756e+05 2 0)
s>                ( - -1.907e+04 1 0))
s>            ( QUESTION0_9_R 1 -9.414e+04 1.641e+03 4.210e+02
s>                ( - -4.555e+04 3 0 QUESTION6 -1 3.433e+02 2.117e+02)
s>                ( - -4.695e+04 3 0 QUESTION6 -1 6.733e+02 2.092e+02))))INFO: dtree.c(1439): stop. leaf nodes are specific
INFO: dtree.c(1478): Final simple tree
|( QUESTION0_5_R 1 -3.891e+05 2.624e+03 1.951e+03
|    ( QUESTION6 -1 -1.856e+05 5.251e+02 9.302e+02
|        ( - -1.350e+05 2 0)
|        ( - -5.003e+04 1 0))
|    ( QUESTION6 -1 -2.009e+05 9.078e+02 1.021e+03
|        ( - -1.392e+05 2 0)
|        ( - -6.076e+04 1 0)))
s>    ( QUESTION0_5_R 1 -3.891e+05 2.624e+03 1.951e+03
s>        ( QUESTION6 -1 -1.856e+05 5.251e+02 9.302e+02
s>            ( - -1.350e+05 2 0)
s>            ( - -5.003e+04 1 0))
s>        ( QUESTION6 -1 -2.009e+05 9.078e+02 1.021e+03
s>            ( - -1.392e+05 2 0)
s>            ( - -6.076e+04 1 0)))INFO: dtree.c(1315): Comp split 1
INFO: dtree.c(1478): Final simple tree
|( QUESTION13 1 -2.361e+05 1.996e+03 1.070e+03
|    ( QUESTION6 -1 -5.586e+04 3.260e+02 2.540e+02
|        ( - -3.584e+04 2 0)
|        ( - -1.969e+04 1 0))
|    ( QUESTION0 1 -1.783e+05 1.139e+03 8.160e+02
|        ( QUESTION0_0_R 1 -1.063e+05 1.826e+03 4.879e+02
|            ( QUESTION6 -1 -5.889e+04 1.043e+03 2.761e+02
|                ( - -4.400e+04 2 0)
|                ( - -1.385e+04 1 0))
|            ( QUESTION6 -1 -4.555e+04 3.433e+02 2.117e+02
|                ( - -3.018e+04 2 0)
|                ( - -1.503e+04 1 0)))
|        ( QUESTION6 -1 -7.089e+04 5.289e+02 3.281e+02
|            ( - -5.076e+04 2 0)
|            ( - -1.960e+04 1 0))))
s>    ( QUESTION13 1 -2.361e+05 1.996e+03 1.070e+03
s>        ( QUESTION6 -1 -5.586e+04 3.260e+02 2.540e+02
s>            ( - -3.584e+04 2 0)
s>            ( - -1.969e+04 1 0))
s>        ( QUESTION0 1 -1.783e+05 1.139e+03 8.160e+02
s>            ( QUESTION0_0_R 1 -1.063e+05 1.826e+03 4.879e+02
s>                ( QUESTION6 -1 -5.889e+04 1.043e+03 2.761e+02
s>                    ( - -4.400e+04 2 0)
s>                    ( - -1.385e+04 1 0))
s>                ( QUESTION6 -1 -4.555e+04 3.433e+02 2.117e+02
s>                    ( - -3.018e+04 2 0)
s>                    ( - -1.503e+04 1 0)))
s>            ( QUESTION6 -1 -7.089e+04 5.289e+02 3.281e+02
s>                ( - -5.076e+04 2 0)
s>                ( - -1.960e+04 1 0))))INFO: dtree.c(1439): stop. leaf nodes are specific
INFO: dtree.c(1478): Final simple tree
|( SILENCE 1 -2.445e+05 2.066e+03 1.070e+03
|    ( QUESTION6 -1 -1.955e+05 8.664e+02 8.609e+02
|        ( - -1.756e+05 2 0)
|        ( - -1.907e+04 1 0))
|    ( QUESTION6 -1 -4.695e+04 6.733e+02 2.092e+02
|        ( - -3.370e+04 2 0)
|        ( - -1.257e+04 1 0)))
s>    ( SILENCE 1 -2.445e+05 2.066e+03 1.070e+03
s>        ( QUESTION6 -1 -1.955e+05 8.664e+02 8.609e+02
s>            ( - -1.756e+05 2 0)
s>            ( - -1.907e+04 1 0))
s>        ( QUESTION6 -1 -4.695e+04 6.733e+02 2.092e+02
s>            ( - -3.370e+04 2 0)
s>            ( - -1.257e+04 1 0)))INFO: dtree.c(1315): Comp split 2
INFO: dtree.c(1439): stop. leaf nodes are specific
INFO: dtree.c(1478): Final simple tree
|( QUESTION6 -1 -2.009e+05 9.078e+02 1.021e+03
|    ( - -1.392e+05 2 0)
|    ( - -6.076e+04 1 0))
s>    ( QUESTION6 -1 -2.009e+05 9.078e+02 1.021e+03
s>        ( - -1.392e+05 2 0)
s>        ( - -6.076e+04 1 0))INFO: dtree.c(1439): stop. leaf nodes are specific
INFO: dtree.c(1478): Final simple tree
|( QUESTION6 -1 -1.856e+05 5.251e+02 9.302e+02
|    ( - -1.350e+05 2 0)
|    ( - -5.003e+04 1 0))
s>    ( QUESTION6 -1 -1.856e+05 5.251e+02 9.302e+02
s>        ( - -1.350e+05 2 0)
s>        ( - -5.003e+04 1 0))INFO: dtree.c(1315): Comp split 3
INFO: dtree.c(1439): stop. leaf nodes are specific
INFO: dtree.c(1478): Final simple tree
|( QUESTION6 -1 -5.889e+04 1.043e+03 2.761e+02
|    ( - -4.400e+04 2 0)
|    ( - -1.385e+04 1 0))
s>    ( QUESTION6 -1 -5.889e+04 1.043e+03 2.761e+02
s>        ( - -4.400e+04 2 0)
s>        ( - -1.385e+04 1 0))INFO: dtree.c(1439): stop. leaf nodes are specific
INFO: dtree.c(1478): Final simple tree
|( QUESTION13 1 -1.749e+05 1.932e+03 7.939e+02
|    ( QUESTION6 -1 -5.586e+04 3.260e+02 2.540e+02
|        ( - -3.584e+04 2 0)
|        ( - -1.969e+04 1 0))
|    ( QUESTION0_0_R 1 -1.171e+05 6.705e+02 5.399e+02
|        ( QUESTION6 -1 -7.089e+04 5.289e+02 3.281e+02
|            ( - -5.076e+04 2 0)
|            ( - -1.960e+04 1 0))
|        ( QUESTION6 -1 -4.555e+04 3.433e+02 2.117e+02
|            ( - -3.018e+04 2 0)
|            ( - -1.503e+04 1 0))))
s>    ( QUESTION13 1 -1.749e+05 1.932e+03 7.939e+02
s>        ( QUESTION6 -1 -5.586e+04 3.260e+02 2.540e+02
s>            ( - -3.584e+04 2 0)
s>            ( - -1.969e+04 1 0))
s>        ( QUESTION0_0_R 1 -1.171e+05 6.705e+02 5.399e+02
s>            ( QUESTION6 -1 -7.089e+04 5.289e+02 3.281e+02
s>                ( - -5.076e+04 2 0)
s>                ( - -1.960e+04 1 0))
s>            ( QUESTION6 -1 -4.555e+04 3.433e+02 2.117e+02
s>                ( - -3.018e+04 2 0)
s>                ( - -1.503e+04 1 0))))INFO: dtree.c(1315): Comp split 4
INFO: dtree.c(1439): stop. leaf nodes are specific
INFO: dtree.c(1478): Final simple tree
|( QUESTION6 -1 -4.695e+04 6.733e+02 2.092e+02
|    ( - -3.370e+04 2 0)
|    ( - -1.257e+04 1 0))
s>    ( QUESTION6 -1 -4.695e+04 6.733e+02 2.092e+02
s>        ( - -3.370e+04 2 0)
s>        ( - -1.257e+04 1 0))INFO: dtree.c(1439): stop. leaf nodes are specific
INFO: dtree.c(1478): Final simple tree
|( QUESTION6 -1 -1.955e+05 8.664e+02 8.609e+02
|    ( - -1.756e+05 2 0)
|    ( - -1.907e+04 1 0))
s>    ( QUESTION6 -1 -1.955e+05 8.664e+02 8.609e+02
s>        ( - -1.756e+05 2 0)
s>        ( - -1.907e+04 1 0))INFO: dtree.c(1315): Comp split 5
INFO: dtree.c(1439): stop. leaf nodes are specific
INFO: dtree.c(1478): Final simple tree
|( QUESTION0_0_R 1 -1.171e+05 6.705e+02 5.399e+02
|    ( QUESTION6 -1 -7.089e+04 5.289e+02 3.281e+02
|        ( - -5.076e+04 2 0)
|        ( - -1.960e+04 1 0))
|    ( QUESTION6 -1 -4.555e+04 3.433e+02 2.117e+02
|        ( - -3.018e+04 2 0)
|        ( - -1.503e+04 1 0)))
s>    ( QUESTION0_0_R 1 -1.171e+05 6.705e+02 5.399e+02
s>        ( QUESTION6 -1 -7.089e+04 5.289e+02 3.281e+02
s>            ( - -5.076e+04 2 0)
s>            ( - -1.960e+04 1 0))
s>        ( QUESTION6 -1 -4.555e+04 3.433e+02 2.117e+02
s>            ( - -3.018e+04 2 0)
s>            ( - -1.503e+04 1 0)))INFO: dtree.c(1439): stop. leaf nodes are specific
INFO: dtree.c(1478): Final simple tree
|( QUESTION6 -1 -5.586e+04 3.260e+02 2.540e+02
|    ( - -3.584e+04 2 0)
|    ( - -1.969e+04 1 0))
s>    ( QUESTION6 -1 -5.586e+04 3.260e+02 2.540e+02
s>        ( - -3.584e+04 2 0)
s>        ( - -1.969e+04 1 0))INFO: dtree.c(1315): Comp split 6
INFO: dtree.c(1315): Comp split 7
INFO: dtree.c(1315): Comp split 8
INFO: dtree.c(1315): Comp split 9
INFO: dtree.c(1439): stop. leaf nodes are specific
INFO: dtree.c(1478): Final simple tree
|( QUESTION6 -1 -6.566e+04 5.376e+02 3.060e+02
|    ( - -3.018e+04 2 0)
|    ( QUESTION0_0_R 1 -3.495e+04 3.182e+02 1.666e+02
|        ( - -1.960e+04 1 0)
|        ( - -1.503e+04 1 0)))
s>    ( QUESTION6 -1 -6.566e+04 5.376e+02 3.060e+02
s>        ( - -3.018e+04 2 0)
s>        ( QUESTION0_0_R 1 -3.495e+04 3.182e+02 1.666e+02
s>            ( - -1.960e+04 1 0)
s>            ( - -1.503e+04 1 0)))INFO: dtree.c(1315): Comp split 10
INFO: dtree.c(1315): Comp split 11
INFO: dtree.c(1439): stop. leaf nodes are specific
INFO: dtree.c(1478): Final simple tree
|( QUESTION0_0_R 1 -3.495e+04 3.182e+02 1.666e+02
|    ( - -1.960e+04 1 0)
|    ( - -1.503e+04 1 0))
s>    ( QUESTION0_0_R 1 -3.495e+04 3.182e+02 1.666e+02
s>        ( - -1.960e+04 1 0)
s>        ( - -1.503e+04 1 0))INFO: dtree.c(1315): Comp split 12
INFO: dtree.c(1315): Comp split 13
INFO: dtree.c(1315): Comp split 14
INFO: dtree.c(1315): Comp split 15
INFO: dtree.c(1318): stop. leaf nodes are specific
Sun Feb 11 23:47:21 2018
